…
#### The origin city frequency of flights that landed at Ausitn

    ##               City IATAcode     lat      long freq
    ## 3237        Boston      BOS 42.3643  -71.0052  366
    ## 3242       Oakland      OAK 37.7213 -122.2210  236
    ## 3247   Kansas City      MCI 39.2976  -94.7139  447
    ## 3251       Phoenix      PHX 33.4343 -112.0120 2779
    ## 3258 San Francisco      SFO 37.6190 -122.3750  605
    ## 3262       Memphis      MEM 35.0424  -89.9767  816

### Data Visualization

#### Histogram

    ## # A tibble: 49 x 2
    ##    City              freq_city
    ##    <fct>                 <dbl>
    ##  1 Houston                5914
    ##  2 Dallas                 5449
    ##  3 Dallas-Fort Worth      5350
    ##  4 Chicago                3131
    ##  5 Phoenix                2768
    ##  6 Denver                 2659
    ##  7 Atlanta                2223
    ##  8 Los Angeles            1718
    ##  9 El Paso                1349
    ## 10 New York               1328
    ## # ... with 39 more rows

    ## # A tibble: 50 x 2
    ##    City              freq_city
    ##    <fct>                 <dbl>
    ##  1 Houston                5924
    ##  2 Dallas                 5468
    ##  3 Dallas-Fort Worth      5349
    ##  4 Chicago                3134
    ##  5 Phoenix                2779
    ##  6 Denver                 2712
    ##  7 Atlanta                2221
    ##  8 Los Angeles            1720
    ##  9 El Paso                1343
    ## 10 New York               1323
    ## # ... with 40 more rows
…
